<?xml version="1.0" encoding="utf-8"?>
<!-- Generator: Adobe Illustrator 16.0.0, SVG Export Plug-In . SVG Version: 6.00 Build 0)  -->
<!DOCTYPE svg PUBLIC "-//W3C//DTD SVG 1.1//EN" "http://www.w3.org/Graphics/SVG/1.1/DTD/svg11.dtd">
<svg version="1.1" id="レイヤー_1" xmlns="http://www.w3.org/2000/svg" xmlns:xlink="http://www.w3.org/1999/xlink" x="0px"
	 y="0px" width="128px" height="128px" viewBox="0 0 128 128" enable-background="new 0 0 128 128" xml:space="preserve">
<g>
	<g>
		<path fill="#FFFFFF" d="M105.85,38.77c-1.21-0.9-2.39-1.65-3.84-2.09c-1-0.31-2.67-0.33-3.47-0.96
			c-4.83,0.08-9.67,0.16-14.51,0.24c-8.14,0.13-16.27,0.27-24.41,0.41c-3.96,0.06-8.08,0.47-12.03,0.05
			c-3.56-0.38-8.02-2.35-11.32-0.1c-0.2,0.13-0.38,0.3-0.55,0.48c-3.46,3.68-6.71,2.79-11.28,4.36c-2.58,0.88-5.01,2.22-7.09,3.98
			c-8.12,6.88-7.66,19.72-7.48,29.2c0.14,7.51-0.17,17.16,4.74,23.41c2.29,2.9,5.9,4.71,9.41,5.59c2.68,0.68,6.02,0.15,8.31,2.01
			c2.97,2.43,1.6,5.89,2.55,9.2c3.08,10.75,19.1,11.5,28.09,12.16c9.57,0.69,19.66,0.45,29.01-1.82
			c12.2-2.96,16.44-10.76,17.42-22.85c1.03-12.69,0.57-26.05,0.44-38.79C109.76,56.16,112.59,43.75,105.85,38.77z M33.93,81
			c-0.09,3.19-2.05,5.37-4.31,4.28c-1.87-0.9-2.53-3.75-2.82-6.24C26.23,74.19,26.37,67.7,27.55,63c0.69-2.76,3.83-4.6,5.49-2.39
			C35.77,64.24,34.03,77.79,33.93,81z"/>
		<path fill="#78A3AD" d="M40.09,41.1L40.09,41.1c0.9,0,2.16,0.26,3.38,0.52c1.12,0.24,2.29,0.48,3.51,0.61
			c1.39,0.15,2.88,0.22,4.58,0.22c1.64,0,3.26-0.07,4.82-0.13c1.12-0.04,2.24-0.09,3.34-0.11l12.2-0.2l12.21-0.2
			c4.39-0.07,8.77-0.14,13.16-0.22c0.94,0.33,1.83,0.48,2.53,0.6c0.2,0.03,0.39,0.06,0.48,0.08c0.56,0.17,1.14,0.51,2.08,1.21
			c2.69,1.99,2.21,8.99,1.87,14.1c-0.14,2.04-0.27,3.96-0.25,5.74c0.02,2.3,0.06,4.62,0.09,6.95c0.16,10.41,0.32,21.18-0.5,31.31
			c-0.88,10.92-4.28,15.54-12.98,17.65c-5.45,1.32-11.69,2-18.53,2c-2.76,0-5.68-0.11-8.68-0.33l-1.01-0.07
			c-7.5-0.53-20.06-1.43-21.9-7.88c-0.14-0.48-0.17-1.26-0.21-2.09c-0.11-2.54-0.29-6.79-4.27-10.02c-2.88-2.35-6.18-2.66-8.58-2.88
			c-0.78-0.07-1.51-0.14-1.98-0.26c-2.75-0.7-5.02-1.99-6.25-3.54c-3.28-4.19-3.39-11.53-3.47-18l-0.03-1.92l-0.01-0.75
			c-0.16-8.46-0.36-18.98,5.43-23.89c1.49-1.26,3.24-2.24,5.21-2.91c1.08-0.38,2.16-0.57,3.28-0.78c2.91-0.53,6.51-1.19,10.04-4.77
			C39.74,41.11,39.89,41.1,40.09,41.1 M30.78,91.4c4.95,0,8.81-4.4,8.99-10.22c0.02-0.53,0.08-1.37,0.16-2.41
			c0.86-10.98,0.76-17.69-2.24-21.67c-1.58-2.1-3.96-3.31-6.52-3.31c-4.25,0-8.16,3.28-9.29,7.79C20.38,67.6,20.47,75.12,21,79.71
			c0.24,2.07,0.96,8.36,6.09,10.83C28.28,91.11,29.52,91.4,30.78,91.4 M40.09,35.27c-1.36,0-2.66,0.27-3.82,1.06
			c-0.2,0.13-0.38,0.3-0.55,0.48c-3.46,3.68-6.71,2.79-11.28,4.36c-2.58,0.88-5.01,2.22-7.09,3.98c-8.12,6.88-7.66,19.72-7.48,29.2
			c0.14,7.51-0.17,17.16,4.74,23.41c2.29,2.9,5.9,4.71,9.41,5.59c2.68,0.68,6.02,0.15,8.31,2.01c2.97,2.43,1.6,5.89,2.55,9.2
			c3.08,10.75,19.1,11.5,28.09,12.16c3,0.21,6.05,0.34,9.11,0.34c6.72,0,13.48-0.6,19.9-2.16c12.2-2.96,16.44-10.76,17.42-22.85
			c1.03-12.69,0.57-26.05,0.44-38.79c-0.07-7.1,2.76-19.51-3.98-24.48c-1.21-0.9-2.39-1.65-3.84-2.09c-1-0.31-2.67-0.33-3.47-0.96
			c-4.83,0.08-9.67,0.16-14.51,0.24c-8.14,0.13-16.27,0.27-24.41,0.41c-2.64,0.04-5.37,0.24-8.06,0.24c-1.33,0-2.66-0.05-3.96-0.19
			C45.29,36.18,42.6,35.27,40.09,35.27L40.09,35.27z M30.78,85.56c-0.37,0-0.76-0.09-1.16-0.28c-1.87-0.9-2.53-3.75-2.82-6.24
			C26.23,74.19,26.37,67.7,27.55,63c0.47-1.91,2.12-3.37,3.63-3.37c0.68,0,1.34,0.29,1.86,0.98c2.73,3.64,0.99,17.19,0.9,20.4
			C33.85,83.62,32.51,85.56,30.78,85.56L30.78,85.56z"/>
	</g>
	<g>
		<defs>
			<path id="SVGID_1_" d="M98.76,56.24c-0.12-0.62-0.22-1.46-1.54-1.44c-1.2,0.02-2.25,0.5-3.32,0.75
				c-6.7,1.55-14.17,2.18-21.34,2.17c-3.64,0-7.27-0.18-10.77-0.54c-3.19-0.33-6.33-0.77-9.39-1.39c-1.07-0.22-2.19-0.34-3.28-0.53
				c-3.53-0.63-3.08,2.51-3.02,3.78c0,0.01,0,0.03,0,0.04c-0.1,1.2-0.02,2.47,0,3.28c0.08,2.56-0.05,26.76,0.16,34.47
				c0.14,5.08-0.28,10.07,4.29,13.38c3.05,2.21,7.62,3,11.25,3.64c3.55,0.63,7.17,0.72,10.77,0.72c4.27,0,8.44-0.15,12.66-0.91
				c2.43-0.43,5.17-0.69,7.29-2.08c4.24-2.79,6.08-8.96,6.31-13.74c0.17-3.61,0.13-15.98,0.12-23.26c0.01-1.18,0.01-2.43,0.01-3.66
				c0-0.36,0-0.68,0-0.94c0.03-2.65,0.11-5.32,0.04-7.98C99.07,60.09,99.1,58.15,98.76,56.24z"/>
		</defs>
		<use xlink:href="#SVGID_1_"  overflow="visible" fill="#FCC21B"/>
		<clipPath id="SVGID_2_">
			<use xlink:href="#SVGID_1_"  overflow="visible"/>
		</clipPath>
	</g>
	<g>
		<path fill="#FFFFFF" d="M48.57,8.21C47.54,9,46.58,9.92,45.35,10.3c-2.07,0.64-4.28-0.23-6.44,0.65c-6.09,2.5-8.95,7.65-6.68,13.9
			c0.76,2.1-0.03,3.09-0.57,5.15c-1.46,5.66,2.39,12.79,8.49,13.47c3.64,0.41,7.16-1.36,10.71-0.97c3,0.33,4.54,3.18,7.19,4.24
			c2.5,1,5.31,1.26,7.97,1.18c3.59-0.12,8.28-2.97,11.56-0.33c5.08,4.09,1.77,12.52,7.84,16.22c2.49,1.52,5.87,1.16,8.23-0.37
			c4.53-2.93,3.44-8.98,4.75-13.48c0.34-1.2,0.81-2.29,1.85-3.03c1.04-0.74,2.19-0.54,3.34-0.99c1.54-0.61,2.99-1.45,4.16-2.66
			c1.36-1.41,0.38-4.03,2.66-4.49c0.7-0.14,1.62-0.55,2.16-0.96c2.95-2.28,3.6-6.88,1.47-9.96c-0.79-1.13-1.38-1.45-1.55-2.85
			c-0.16-1.27,0.12-2.37-0.35-3.67c-1.15-3.2-4-5.21-7.17-6.08c-0.59-0.16-1.21-0.3-1.82-0.41c-1.02-0.19-1.87-0.23-2.65-1
			c-0.41-0.39-0.72-0.97-1-1.45c-0.81-1.31-1.88-2.35-3.07-3.29c-3.53-2.79-8.23-3.44-12.6-2.82c-1.18,0.16-2.23,0.58-3.35,1
			c-2.82,1.05-3.92-0.86-6.17-2.08c-2.81-1.51-6.17-1.55-9.25-1.09c-1.81,0.27-3.14,1.36-4.77,2.06c-1.88,0.81-2.94,0.22-4.82,0.09
			C53.79,6.14,52,6.58,50.42,7.12C49.75,7.36,49.14,7.76,48.57,8.21z"/>
		<path fill="#78A3AD" d="M89.07,67.7c-1.88,0-3.66-0.48-5.17-1.4c-4.31-2.64-5.1-6.96-5.73-10.44c-0.46-2.54-0.87-4.75-2.41-6
			c-0.29-0.23-0.71-0.47-1.6-0.47c-1.05,0-2.38,0.34-3.66,0.66c-1.42,0.36-2.88,0.73-4.36,0.78c-3.39,0.1-6.58-0.35-9.16-1.39
			c-1.53-0.61-2.7-1.58-3.72-2.43c-1.14-0.94-1.88-1.53-2.7-1.62c-1.38-0.14-2.82,0.14-4.4,0.45c-1.97,0.37-4.09,0.77-6.31,0.52
			c-3.48-0.39-6.59-2.34-8.76-5.49c-2.38-3.46-3.21-7.81-2.22-11.62c0.15-0.57,0.31-1.06,0.46-1.51c0.38-1.14,0.42-1.29,0.19-1.91
			c-2.72-7.5,0.55-14.41,8.32-17.59c1.39-0.57,2.72-0.64,3.72-0.64c0.32,0,0.64,0.01,0.96,0.02c0.81,0.03,1.58,0.02,2-0.11
			c0.46-0.14,1.04-0.61,1.66-1.1l0.63-0.51c0.72-0.54,1.58-1.14,2.69-1.53c2.33-0.81,4.32-1.15,6.2-1.01
			c0.61,0.04,1.15,0.13,1.65,0.21c0.37,0.06,0.69,0.12,1.04,0.12c0.18,0,0.4-0.02,0.77-0.18c0.47-0.2,0.91-0.44,1.33-0.67
			c1.16-0.63,2.45-1.33,4.16-1.59c4.41-0.66,8.11-0.18,11.06,1.41c0.76,0.42,1.38,0.86,1.93,1.25c0.55,0.4,1.08,0.78,1.32,0.78
			c0.07,0,0.23-0.02,0.51-0.12l0.24-0.09C80.82,4.04,82,3.6,83.42,3.4c5.66-0.8,11.01,0.42,14.81,3.42
			c1.67,1.32,2.87,2.61,3.75,4.06l0.18,0.31c0.12,0.19,0.23,0.42,0.37,0.58c0.07,0.02,0.42,0.09,0.68,0.13l0.47,0.08
			c0.68,0.13,1.39,0.28,2.06,0.46c4.44,1.22,7.77,4.1,9.14,7.9c0.48,1.31,0.47,2.43,0.47,3.33c0,0.32-0.02,0.65,0.03,0.98
			c0.07,0.25,0.23,0.46,0.35,0.61c0.22,0.27,0.45,0.57,0.71,0.93c3.01,4.35,2.06,10.73-2.08,13.93c-0.76,0.58-1.81,1.09-2.82,1.38
			c-0.01,0.07-0.02,0.15-0.04,0.23c-0.19,0.95-0.49,2.37-1.64,3.56c-1.34,1.39-3.08,2.51-5.17,3.34c-0.77,0.31-1.45,0.42-2,0.51
			c-0.24,0.04-0.66,0.11-0.73,0.15c-0.2,0.15-0.45,0.43-0.75,1.47c-0.33,1.12-0.48,2.46-0.65,3.89c-0.43,3.76-0.99,8.44-5.31,11.23
			C93.44,67.06,91.25,67.7,89.07,67.7z M74.15,43.56c2.04,0,3.81,0.59,5.26,1.76c3.25,2.61,3.92,6.27,4.5,9.5
			c0.59,3.24,1.05,5.29,3.04,6.5c1.34,0.82,3.6,0.66,5.13-0.33c1.92-1.24,2.27-3.47,2.69-7.01c0.19-1.6,0.38-3.24,0.84-4.83
			c0.42-1.46,1.14-3.3,2.98-4.6c1.17-0.83,2.31-1.01,3.15-1.15c0.33-0.05,0.62-0.1,0.79-0.17c1.33-0.53,2.36-1.18,3.14-1.98
			c-0.02-0.02,0.06-0.42,0.12-0.68c0.24-1.2,0.82-3.99,4.06-4.64c0.28-0.06,0.78-0.29,0.94-0.41c1.71-1.32,2.12-4.18,0.86-6
			c-0.16-0.24-0.32-0.42-0.46-0.6c-0.58-0.72-1.38-1.71-1.6-3.56c-0.07-0.59-0.07-1.16-0.07-1.71c0.01-0.65,0-1-0.12-1.32
			c-1.02-2.83-3.98-3.92-5.2-4.26c-0.52-0.14-1.06-0.26-1.59-0.36l-0.37-0.07c-1.04-0.17-2.46-0.42-3.79-1.71
			c-0.61-0.59-1.02-1.28-1.31-1.79L97,13.92c-0.52-0.85-1.25-1.63-2.38-2.52c-2.52-1.99-5.63-2.41-7.8-2.41
			c-0.85,0-1.72,0.06-2.6,0.19c-0.78,0.11-1.57,0.4-2.49,0.75l-0.24,0.09c-0.89,0.33-1.72,0.49-2.56,0.49
			c-2.12,0-3.57-1.04-4.73-1.88c-0.39-0.29-0.81-0.59-1.3-0.85C71.09,6.8,68.6,6.54,65.49,7c-0.69,0.1-1.37,0.48-2.23,0.94
			c-0.59,0.32-1.19,0.64-1.82,0.91c-1.74,0.75-3.64,0.69-5.03,0.46c-0.36-0.06-0.73-0.12-1.16-0.15c-1.04-0.07-2.32,0.17-3.87,0.71
			c-0.33,0.11-0.73,0.41-1.05,0.65l-0.53,0.42c-0.92,0.74-2.06,1.66-3.59,2.14c-1.55,0.48-2.78,0.4-3.88,0.37
			c-0.27-0.01-0.53-0.02-0.8-0.02c-0.72,0-1.15,0.06-1.51,0.21c-2.84,1.16-7.28,4.04-5.04,10.2c0.93,2.55,0.33,4.32-0.13,5.74
			c-0.12,0.34-0.24,0.72-0.35,1.15c-0.57,2.16-0.03,4.78,1.38,6.84c0.69,1,2.21,2.73,4.59,2.99c1.44,0.16,2.93-0.13,4.56-0.45
			c1.93-0.37,4-0.76,6.15-0.52c2.61,0.29,4.37,1.75,5.79,2.93c0.8,0.66,1.48,1.22,2.17,1.5c1.83,0.73,4.22,1.05,6.8,0.97
			c0.84-0.03,1.95-0.31,3.11-0.61C70.6,44,72.37,43.56,74.15,43.56z"/>
	</g>
</g>
</svg>

